<mxfile host="app.diagrams.net" modified="2024-03-11T13:44:39.504Z" agent="Mozilla/5.0 (Windows NT 10.0; Win64; x64) AppleWebKit/537.36 (KHTML, like Gecko) Chrome/122.0.0.0 Safari/537.36" etag="uGWzyuyM-r8V1B6C80H-" version="24.0.4" type="device">
  <diagram id="C5RBs43oDa-KdzZeNtuy" name="Page-1">
    <mxGraphModel dx="997" dy="4108" grid="1" gridSize="10" guides="1" tooltips="1" connect="1" arrows="1" fold="1" page="1" pageScale="1" pageWidth="2339" pageHeight="3300" math="0" shadow="0">
      <root>
        <mxCell id="WIyWlLk6GJQsqaUBKTNV-0" />
        <mxCell id="WIyWlLk6GJQsqaUBKTNV-1" parent="WIyWlLk6GJQsqaUBKTNV-0" />
        <mxCell id="zkfFHV4jXpPFQw0GAbJ--0" value="Character" style="swimlane;fontStyle=2;align=center;verticalAlign=top;childLayout=stackLayout;horizontal=1;startSize=26;horizontalStack=0;resizeParent=1;resizeLast=0;collapsible=1;marginBottom=0;rounded=0;shadow=0;strokeWidth=1;" parent="WIyWlLk6GJQsqaUBKTNV-1" vertex="1">
          <mxGeometry x="720" y="-1700" width="160" height="314" as="geometry">
            <mxRectangle x="230" y="140" width="160" height="26" as="alternateBounds" />
          </mxGeometry>
        </mxCell>
        <mxCell id="LywA3pKN52vlZ73v-vsI-77" value="Height" style="text;whiteSpace=wrap;" vertex="1" parent="zkfFHV4jXpPFQw0GAbJ--0">
          <mxGeometry y="26" width="160" height="40" as="geometry" />
        </mxCell>
        <mxCell id="LywA3pKN52vlZ73v-vsI-83" value="Build" style="text;whiteSpace=wrap;" vertex="1" parent="zkfFHV4jXpPFQw0GAbJ--0">
          <mxGeometry y="66" width="160" height="40" as="geometry" />
        </mxCell>
        <mxCell id="LywA3pKN52vlZ73v-vsI-84" value="HairColor" style="text;whiteSpace=wrap;" vertex="1" parent="zkfFHV4jXpPFQw0GAbJ--0">
          <mxGeometry y="106" width="160" height="40" as="geometry" />
        </mxCell>
        <mxCell id="LywA3pKN52vlZ73v-vsI-86" value="Clothing" style="text;whiteSpace=wrap;" vertex="1" parent="zkfFHV4jXpPFQw0GAbJ--0">
          <mxGeometry y="146" width="160" height="40" as="geometry" />
        </mxCell>
        <mxCell id="LywA3pKN52vlZ73v-vsI-85" value="EyeColor" style="text;whiteSpace=wrap;" vertex="1" parent="zkfFHV4jXpPFQw0GAbJ--0">
          <mxGeometry y="186" width="160" height="40" as="geometry" />
        </mxCell>
        <mxCell id="LywA3pKN52vlZ73v-vsI-87" value="Inventory" style="text;whiteSpace=wrap;" vertex="1" parent="zkfFHV4jXpPFQw0GAbJ--0">
          <mxGeometry y="226" width="160" height="40" as="geometry" />
        </mxCell>
        <mxCell id="zkfFHV4jXpPFQw0GAbJ--4" value="" style="line;html=1;strokeWidth=1;align=left;verticalAlign=middle;spacingTop=-1;spacingLeft=3;spacingRight=3;rotatable=0;labelPosition=right;points=[];portConstraint=eastwest;" parent="zkfFHV4jXpPFQw0GAbJ--0" vertex="1">
          <mxGeometry y="266" width="160" height="8" as="geometry" />
        </mxCell>
        <mxCell id="LywA3pKN52vlZ73v-vsI-78" value="DisplayInfo()" style="text;whiteSpace=wrap;" vertex="1" parent="zkfFHV4jXpPFQw0GAbJ--0">
          <mxGeometry y="274" width="160" height="40" as="geometry" />
        </mxCell>
        <mxCell id="LywA3pKN52vlZ73v-vsI-88" value="CharacterBuilderBase" style="swimlane;fontStyle=2;align=center;verticalAlign=top;childLayout=stackLayout;horizontal=1;startSize=26;horizontalStack=0;resizeParent=1;resizeLast=0;collapsible=1;marginBottom=0;rounded=0;shadow=0;strokeWidth=1;" vertex="1" parent="WIyWlLk6GJQsqaUBKTNV-1">
          <mxGeometry x="500" y="-1220" width="160" height="434" as="geometry">
            <mxRectangle x="230" y="140" width="160" height="26" as="alternateBounds" />
          </mxGeometry>
        </mxCell>
        <mxCell id="LywA3pKN52vlZ73v-vsI-89" value="_builder" style="text;whiteSpace=wrap;" vertex="1" parent="LywA3pKN52vlZ73v-vsI-88">
          <mxGeometry y="26" width="160" height="40" as="geometry" />
        </mxCell>
        <mxCell id="LywA3pKN52vlZ73v-vsI-95" value="" style="line;html=1;strokeWidth=1;align=left;verticalAlign=middle;spacingTop=-1;spacingLeft=3;spacingRight=3;rotatable=0;labelPosition=right;points=[];portConstraint=eastwest;" vertex="1" parent="LywA3pKN52vlZ73v-vsI-88">
          <mxGeometry y="66" width="160" height="8" as="geometry" />
        </mxCell>
        <mxCell id="LywA3pKN52vlZ73v-vsI-99" value="Reset()" style="text;whiteSpace=wrap;" vertex="1" parent="LywA3pKN52vlZ73v-vsI-88">
          <mxGeometry y="74" width="160" height="40" as="geometry" />
        </mxCell>
        <mxCell id="LywA3pKN52vlZ73v-vsI-96" value="CharacterBuilderBase()" style="text;whiteSpace=wrap;" vertex="1" parent="LywA3pKN52vlZ73v-vsI-88">
          <mxGeometry y="114" width="160" height="40" as="geometry" />
        </mxCell>
        <mxCell id="LywA3pKN52vlZ73v-vsI-100" value="SetHeight(height)" style="text;whiteSpace=wrap;" vertex="1" parent="LywA3pKN52vlZ73v-vsI-88">
          <mxGeometry y="154" width="160" height="40" as="geometry" />
        </mxCell>
        <mxCell id="LywA3pKN52vlZ73v-vsI-101" value="SetBuild(build)" style="text;whiteSpace=wrap;" vertex="1" parent="LywA3pKN52vlZ73v-vsI-88">
          <mxGeometry y="194" width="160" height="40" as="geometry" />
        </mxCell>
        <mxCell id="LywA3pKN52vlZ73v-vsI-103" value="SetEyeColor(eyeColor)" style="text;whiteSpace=wrap;" vertex="1" parent="LywA3pKN52vlZ73v-vsI-88">
          <mxGeometry y="234" width="160" height="40" as="geometry" />
        </mxCell>
        <mxCell id="LywA3pKN52vlZ73v-vsI-102" value="SetHairColor(hairColor)" style="text;whiteSpace=wrap;" vertex="1" parent="LywA3pKN52vlZ73v-vsI-88">
          <mxGeometry y="274" width="160" height="40" as="geometry" />
        </mxCell>
        <mxCell id="LywA3pKN52vlZ73v-vsI-104" value="SetClothing(clothing)" style="text;whiteSpace=wrap;" vertex="1" parent="LywA3pKN52vlZ73v-vsI-88">
          <mxGeometry y="314" width="160" height="40" as="geometry" />
        </mxCell>
        <mxCell id="LywA3pKN52vlZ73v-vsI-106" value="Build()" style="text;whiteSpace=wrap;" vertex="1" parent="LywA3pKN52vlZ73v-vsI-88">
          <mxGeometry y="354" width="160" height="40" as="geometry" />
        </mxCell>
        <mxCell id="LywA3pKN52vlZ73v-vsI-105" value="AddToInventory(item)" style="text;whiteSpace=wrap;" vertex="1" parent="LywA3pKN52vlZ73v-vsI-88">
          <mxGeometry y="394" width="160" height="40" as="geometry" />
        </mxCell>
        <mxCell id="LywA3pKN52vlZ73v-vsI-107" value="EnemyBuilder" style="swimlane;fontStyle=2;align=center;verticalAlign=top;childLayout=stackLayout;horizontal=1;startSize=26;horizontalStack=0;resizeParent=1;resizeLast=0;collapsible=1;marginBottom=0;rounded=0;shadow=0;strokeWidth=1;" vertex="1" parent="WIyWlLk6GJQsqaUBKTNV-1">
          <mxGeometry x="1050" y="-1230" width="160" height="440" as="geometry">
            <mxRectangle x="230" y="140" width="160" height="26" as="alternateBounds" />
          </mxGeometry>
        </mxCell>
        <mxCell id="LywA3pKN52vlZ73v-vsI-113" value="_builder" style="text;whiteSpace=wrap;" vertex="1" parent="LywA3pKN52vlZ73v-vsI-107">
          <mxGeometry y="26" width="160" height="40" as="geometry" />
        </mxCell>
        <mxCell id="LywA3pKN52vlZ73v-vsI-114" value="" style="line;html=1;strokeWidth=1;align=left;verticalAlign=middle;spacingTop=-1;spacingLeft=3;spacingRight=3;rotatable=0;labelPosition=right;points=[];portConstraint=eastwest;" vertex="1" parent="LywA3pKN52vlZ73v-vsI-107">
          <mxGeometry y="66" width="160" height="8" as="geometry" />
        </mxCell>
        <mxCell id="LywA3pKN52vlZ73v-vsI-115" value="Reset()" style="text;whiteSpace=wrap;" vertex="1" parent="LywA3pKN52vlZ73v-vsI-107">
          <mxGeometry y="74" width="160" height="40" as="geometry" />
        </mxCell>
        <mxCell id="LywA3pKN52vlZ73v-vsI-116" value="CharacterBuilderBase()" style="text;whiteSpace=wrap;" vertex="1" parent="LywA3pKN52vlZ73v-vsI-107">
          <mxGeometry y="114" width="160" height="40" as="geometry" />
        </mxCell>
        <mxCell id="LywA3pKN52vlZ73v-vsI-117" value="SetHeight(height)" style="text;whiteSpace=wrap;" vertex="1" parent="LywA3pKN52vlZ73v-vsI-107">
          <mxGeometry y="154" width="160" height="40" as="geometry" />
        </mxCell>
        <mxCell id="LywA3pKN52vlZ73v-vsI-118" value="SetBuild(build)" style="text;whiteSpace=wrap;" vertex="1" parent="LywA3pKN52vlZ73v-vsI-107">
          <mxGeometry y="194" width="160" height="40" as="geometry" />
        </mxCell>
        <mxCell id="LywA3pKN52vlZ73v-vsI-119" value="SetEyeColor(eyeColor)" style="text;whiteSpace=wrap;" vertex="1" parent="LywA3pKN52vlZ73v-vsI-107">
          <mxGeometry y="234" width="160" height="40" as="geometry" />
        </mxCell>
        <mxCell id="LywA3pKN52vlZ73v-vsI-120" value="SetHairColor(hairColor)" style="text;whiteSpace=wrap;" vertex="1" parent="LywA3pKN52vlZ73v-vsI-107">
          <mxGeometry y="274" width="160" height="40" as="geometry" />
        </mxCell>
        <mxCell id="LywA3pKN52vlZ73v-vsI-121" value="SetClothing(clothing)" style="text;whiteSpace=wrap;" vertex="1" parent="LywA3pKN52vlZ73v-vsI-107">
          <mxGeometry y="314" width="160" height="40" as="geometry" />
        </mxCell>
        <mxCell id="LywA3pKN52vlZ73v-vsI-122" value="Build()" style="text;whiteSpace=wrap;" vertex="1" parent="LywA3pKN52vlZ73v-vsI-107">
          <mxGeometry y="354" width="160" height="40" as="geometry" />
        </mxCell>
        <mxCell id="LywA3pKN52vlZ73v-vsI-123" value="AddToInventory(item)" style="text;whiteSpace=wrap;" vertex="1" parent="LywA3pKN52vlZ73v-vsI-107">
          <mxGeometry y="394" width="160" height="40" as="geometry" />
        </mxCell>
        <mxCell id="LywA3pKN52vlZ73v-vsI-124" value="ICharacterBuilder" style="swimlane;fontStyle=2;align=center;verticalAlign=top;childLayout=stackLayout;horizontal=1;startSize=26;horizontalStack=0;resizeParent=1;resizeLast=0;collapsible=1;marginBottom=0;rounded=0;shadow=0;strokeWidth=1;" vertex="1" parent="WIyWlLk6GJQsqaUBKTNV-1">
          <mxGeometry x="750" y="-1290" width="160" height="314" as="geometry">
            <mxRectangle x="230" y="140" width="160" height="26" as="alternateBounds" />
          </mxGeometry>
        </mxCell>
        <mxCell id="LywA3pKN52vlZ73v-vsI-131" value="" style="line;html=1;strokeWidth=1;align=left;verticalAlign=middle;spacingTop=-1;spacingLeft=3;spacingRight=3;rotatable=0;labelPosition=right;points=[];portConstraint=eastwest;" vertex="1" parent="LywA3pKN52vlZ73v-vsI-124">
          <mxGeometry y="26" width="160" height="8" as="geometry" />
        </mxCell>
        <mxCell id="LywA3pKN52vlZ73v-vsI-132" value="SetHeight(string height)" style="text;whiteSpace=wrap;" vertex="1" parent="LywA3pKN52vlZ73v-vsI-124">
          <mxGeometry y="34" width="160" height="40" as="geometry" />
        </mxCell>
        <mxCell id="LywA3pKN52vlZ73v-vsI-133" value="SetBuild(string build)" style="text;whiteSpace=wrap;" vertex="1" parent="LywA3pKN52vlZ73v-vsI-124">
          <mxGeometry y="74" width="160" height="40" as="geometry" />
        </mxCell>
        <mxCell id="LywA3pKN52vlZ73v-vsI-134" value="SetHairColor(string hairColor)" style="text;whiteSpace=wrap;" vertex="1" parent="LywA3pKN52vlZ73v-vsI-124">
          <mxGeometry y="114" width="160" height="40" as="geometry" />
        </mxCell>
        <mxCell id="LywA3pKN52vlZ73v-vsI-135" value="SetEyeColor(string eyeColor)" style="text;whiteSpace=wrap;" vertex="1" parent="LywA3pKN52vlZ73v-vsI-124">
          <mxGeometry y="154" width="160" height="40" as="geometry" />
        </mxCell>
        <mxCell id="LywA3pKN52vlZ73v-vsI-136" value="SetClothing(string clothing)" style="text;whiteSpace=wrap;" vertex="1" parent="LywA3pKN52vlZ73v-vsI-124">
          <mxGeometry y="194" width="160" height="40" as="geometry" />
        </mxCell>
        <mxCell id="LywA3pKN52vlZ73v-vsI-137" value="AddToInventory(string item)" style="text;whiteSpace=wrap;" vertex="1" parent="LywA3pKN52vlZ73v-vsI-124">
          <mxGeometry y="234" width="160" height="40" as="geometry" />
        </mxCell>
        <mxCell id="LywA3pKN52vlZ73v-vsI-138" value="Build()" style="text;whiteSpace=wrap;" vertex="1" parent="LywA3pKN52vlZ73v-vsI-124">
          <mxGeometry y="274" width="160" height="40" as="geometry" />
        </mxCell>
        <mxCell id="LywA3pKN52vlZ73v-vsI-141" value="CharacterDirector" style="swimlane;fontStyle=2;align=center;verticalAlign=top;childLayout=stackLayout;horizontal=1;startSize=26;horizontalStack=0;resizeParent=1;resizeLast=0;collapsible=1;marginBottom=0;rounded=0;shadow=0;strokeWidth=1;" vertex="1" parent="WIyWlLk6GJQsqaUBKTNV-1">
          <mxGeometry x="1080" y="-1650" width="160" height="190" as="geometry">
            <mxRectangle x="230" y="140" width="160" height="26" as="alternateBounds" />
          </mxGeometry>
        </mxCell>
        <mxCell id="LywA3pKN52vlZ73v-vsI-142" value="_builder" style="text;whiteSpace=wrap;" vertex="1" parent="LywA3pKN52vlZ73v-vsI-141">
          <mxGeometry y="26" width="160" height="40" as="geometry" />
        </mxCell>
        <mxCell id="LywA3pKN52vlZ73v-vsI-148" value="" style="line;html=1;strokeWidth=1;align=left;verticalAlign=middle;spacingTop=-1;spacingLeft=3;spacingRight=3;rotatable=0;labelPosition=right;points=[];portConstraint=eastwest;" vertex="1" parent="LywA3pKN52vlZ73v-vsI-141">
          <mxGeometry y="66" width="160" height="8" as="geometry" />
        </mxCell>
        <mxCell id="LywA3pKN52vlZ73v-vsI-149" value="CharacterDirector(builder)" style="text;whiteSpace=wrap;" vertex="1" parent="LywA3pKN52vlZ73v-vsI-141">
          <mxGeometry y="74" width="160" height="40" as="geometry" />
        </mxCell>
        <mxCell id="LywA3pKN52vlZ73v-vsI-150" value="ConstructCharacter(height, build, hairColor, eyeColor, clothing,  inventory)" style="text;whiteSpace=wrap;" vertex="1" parent="LywA3pKN52vlZ73v-vsI-141">
          <mxGeometry y="114" width="160" height="50" as="geometry" />
        </mxCell>
        <mxCell id="LywA3pKN52vlZ73v-vsI-152" style="edgeStyle=orthogonalEdgeStyle;rounded=0;orthogonalLoop=1;jettySize=auto;html=1;exitX=0;exitY=1;exitDx=0;exitDy=0;endArrow=block;endFill=0;dashed=1;dashPattern=8 8;" edge="1" parent="WIyWlLk6GJQsqaUBKTNV-1" source="LywA3pKN52vlZ73v-vsI-116" target="LywA3pKN52vlZ73v-vsI-124">
          <mxGeometry relative="1" as="geometry" />
        </mxCell>
        <mxCell id="LywA3pKN52vlZ73v-vsI-153" style="edgeStyle=orthogonalEdgeStyle;rounded=0;orthogonalLoop=1;jettySize=auto;html=1;endArrow=block;endFill=0;dashed=1;dashPattern=8 8;" edge="1" parent="WIyWlLk6GJQsqaUBKTNV-1" source="LywA3pKN52vlZ73v-vsI-88" target="LywA3pKN52vlZ73v-vsI-124">
          <mxGeometry relative="1" as="geometry">
            <mxPoint x="920" y="-843" as="sourcePoint" />
            <mxPoint x="750" y="-890" as="targetPoint" />
          </mxGeometry>
        </mxCell>
        <mxCell id="LywA3pKN52vlZ73v-vsI-154" value="" style="endArrow=classic;html=1;rounded=0;exitX=0.5;exitY=0;exitDx=0;exitDy=0;" edge="1" parent="WIyWlLk6GJQsqaUBKTNV-1" source="LywA3pKN52vlZ73v-vsI-124" target="LywA3pKN52vlZ73v-vsI-141">
          <mxGeometry width="50" height="50" relative="1" as="geometry">
            <mxPoint x="860" y="-1340" as="sourcePoint" />
            <mxPoint x="910" y="-1390" as="targetPoint" />
          </mxGeometry>
        </mxCell>
        <mxCell id="LywA3pKN52vlZ73v-vsI-158" style="edgeStyle=orthogonalEdgeStyle;rounded=0;orthogonalLoop=1;jettySize=auto;html=1;entryX=0.45;entryY=0.002;entryDx=0;entryDy=0;entryPerimeter=0;endArrow=classic;endFill=1;" edge="1" parent="WIyWlLk6GJQsqaUBKTNV-1" source="zkfFHV4jXpPFQw0GAbJ--0" target="LywA3pKN52vlZ73v-vsI-88">
          <mxGeometry relative="1" as="geometry" />
        </mxCell>
        <mxCell id="LywA3pKN52vlZ73v-vsI-159" style="edgeStyle=orthogonalEdgeStyle;rounded=0;orthogonalLoop=1;jettySize=auto;html=1;entryX=0.5;entryY=0;entryDx=0;entryDy=0;endArrow=classic;endFill=1;" edge="1" parent="WIyWlLk6GJQsqaUBKTNV-1" source="zkfFHV4jXpPFQw0GAbJ--0" target="LywA3pKN52vlZ73v-vsI-107">
          <mxGeometry relative="1" as="geometry">
            <mxPoint x="1058" y="-1570" as="sourcePoint" />
            <mxPoint x="910" y="-1246" as="targetPoint" />
            <Array as="points">
              <mxPoint x="800" y="-1360" />
              <mxPoint x="1130" y="-1360" />
            </Array>
          </mxGeometry>
        </mxCell>
        <mxCell id="LywA3pKN52vlZ73v-vsI-160" style="edgeStyle=orthogonalEdgeStyle;rounded=0;orthogonalLoop=1;jettySize=auto;html=1;endArrow=classic;endFill=1;exitX=0.5;exitY=0;exitDx=0;exitDy=0;" edge="1" parent="WIyWlLk6GJQsqaUBKTNV-1" source="zkfFHV4jXpPFQw0GAbJ--0">
          <mxGeometry relative="1" as="geometry">
            <mxPoint x="830" y="-1800" as="sourcePoint" />
            <mxPoint x="1160" y="-1650" as="targetPoint" />
            <Array as="points">
              <mxPoint x="800" y="-1774" />
              <mxPoint x="1160" y="-1774" />
            </Array>
          </mxGeometry>
        </mxCell>
      </root>
    </mxGraphModel>
  </diagram>
</mxfile>
